{
    "root": "./book",
    "title": "برنامه نویسی با انجمن آرچ ایران ",
    "language": "fa",
    "direction": "rtl",
    "plugins": [
        "-fontsettings"
    ],
    "pdf": {
        "fontFamily": "Sahel"
    }
}

